{
  "content": [
    {
      "id": 9,
      "data": "dummy data 9"
    },
    {
      "id": 89,
      "data": "dummy data 89"
    },
    {
      "id": 88,
      "data": "dummy data 88"
    },
    {
      "id": 87,
      "data": "dummy data 87"
    },
    {
      "id": 86,
      "data": "dummy data 86"
    }
  ],
  "pageable": {
    "sort": {
      "empty": false,
      "sorted": true,
      "unsorted": false
    },
    "offset": 10,
    "pageSize": 5,
    "pageNumber": 2,
    "unpaged": false,
    "paged": true
  },
  "last": false,
  "totalElements": 100,
  "totalPages": 20,
  "size": 5,
  "number": 2,
  "sort": {
    "empty": false,
    "sorted": true,
    "unsorted": false
  },
  "first": false,
  "numberOfElements": 5,
  "empty": false
}